*** Life<Cell> 5x5 ***

Generation = 0, Population = 9.
-0-0-
-0---
-0---
---0-
000-0

Generation = 1, Population = 14.
01--0
0-00-
0100-
0----
1-10-

Generation = 2, Population = 8.
-*---
-----
1-1-0
-----
*-*10

Generation = 3, Population = 8.
0.0--
000-0
-----
---0-
.-.-1

Generation = 4, Population = 10.
1.100
-----
11100
--0--
.-.--

Generation = 5, Population = 9.
-.*-1
-0---
*-*-1
0-1-0
.-.--

*** Life<Cell> 5x5 ***

Generation = 0, Population = 11.
---0-
-000-
0--0-
--000
-00--

Generation = 2, Population = 12.
01---
0*0--
0--0-
1--*-
-*0-1

Generation = 4, Population = 6.
0-0--
-.--0
----1
.--.-
-*--1

Generation = 6, Population = 11.
0----
-.*-*
00--*
.--.1
-**11

Generation = 8, Population = 15.
0*1--
1..1*
-*0*.
*01.1
1..1-

Generation = 10, Population = 10.
-*.-1
*.*1.
-.-..
**1.-
*..1-

*** Life<Cell> 5x5 ***

Generation = 0, Population = 14.
-000-
0-0--
0000-
00---
00--0

Generation = 4, Population = 9.
0**.-
.----
.*--1
--0-1
-0--0

Generation = 8, Population = 13.
-***.
.*10*
*.-..
11-*-
0--1.

Generation = 12, Population = 10.
-***.
*.*-.
*...*
*.-.*
.-.*.

Generation = 16, Population = 8.
-**..
*..1.
**...
..1..
.0...

Generation = 20, Population = 6.
1....
**.-.
*....
..1..
.0...

*** Life<Cell> 10x10 ***

Generation = 0, Population = 17.
--0----0--
-------0--
------0---
--0-0-----
---0-----0
--0-0-----
------0---
00-----0--
----0-----
0--------0

Generation = 1, Population = 42.
-0-0--010-
--0----10-
--0-00----
-0-0-00--0
--0-0---0-
-0-0-00--0
000-00----
110-0---0-
-0-0-0-0-0
-0--0---0-

Generation = 2, Population = 37.
0-0-001*-0
--1-00---0
--101--000
0-----10--
-0---0-0-0
-1----10--
---0----00
---010----
--0-------
010-------

Generation = 3, Population = 39.
--1--1-.-1
00-01-----
00--------
--000-*1--
-10-0-----
0*00--*---
-001-00-11
-----10-00
0-1-00----
1--0------

Generation = 4, Population = 36.
0-----1.0-
--11*----0
------00--
00----.*0-
--1-10-0--
1.----*000
--1---1---
11-0-*----
1--01---00
*1---0----

Generation = 5, Population = 57.
-01001-.--
00*-.0-1--
0010101--0
11--00..10
----*10-00
-*--0-.1-1
------*-11
-*011*--00
-01-*0-011
**00--0-00

*** Life<Cell> 10x10 ***

Generation = 0, Population = 30.
0--00--0-0
-00-------
0--0----0-
0-0---0---
0--0------
----------
--0-0--0-0
--0----000
0----0-0--
-0---0--00

Generation = 2, Population = 54.
00--*-1-00
--*11-0---
*01-1011-1
-0------1-
-1-010-000
1-----0101
0-*00-1---
11--1-1*00
0--01*----
-01--*10-*

Generation = 4, Population = 46.
*-01*0.--*
0-.-*10---
*--1--..1-
0-0-0-11.1
-*0*-*-0-0
*-1--0-**1
0-.--01--1
..111-1*0-
-10-..----
--*--*1--.

Generation = 6, Population = 48.
.-*-.-*0**
--.*..*-11
.*1-*1..1-
*1*001.1..
-.-.-.10-0
.1.010-..*
-1.100-*1*
..--*1-.*-
**-1..-*-0
0-*--**--.

Generation = 8, Population = 46.
.**1*1*-*.
-**.*.*-*-
*.-1*-*.*1
*..0-1.**.
*.-*-*.-0*
..*0.-0*.*
-..1--1*.*
..1-.--..*
..--.*0*1-
-**--..-1.

Generation = 10, Population = 32.
...1.-.0..
0.....*-.-
*.1-*-**..
*.*0*...*.
*.-.1**--.
...*.--..*
-.**---..*
..-1.*1...
..11..-*-0
-..-0..1..

*** Life<Cell> 10x10 ***

Generation = 0, Population = 54.
000000---0
0--0--0-0-
00--0-0000
0-----00-0
0-00000000
00----0---
0-00----0-
000-000---
0----0--00
--00--0000

Generation = 4, Population = 51.
-0-.011--0
-*-1.-*-.1
.*000-.*--
0-**--1.01
--.0*0*.*-
*.1*1*-*-1
---.-.-.-0
.-0-*1*--*
-1--11--**
0-**10.11*

Generation = 8, Population = 42.
0***--1**1
..-.*-*-..
..**1-*.*1
1-..--.**.
--.-*-.*.1
....**-*.*
1--.-*-**-
*---.***-.
*-*0...1..
*-.*.-*.*.

Generation = 12, Population = 33.
....1*-...
**-..-.-..
****-*....
-***.*.*..
-*...-....
......1.*.
.-*.-*1..0
...-.**.-.
.*.1..*..*
***..1.**.

Generation = 16, Population = 25.
....*.-...
..-*.-.-..
......*...
......*...
-....**...
**.*..*...
*1.*1....-
.*.-*.**-.
...*....*.
...***.**.

Generation = 20, Population = 30.
......-...
..-..-.-..
..........
......*...
*.***.*...
*.*.*.*...
...*-**..-
***.**.*-.
*..*....*.
.********.

*** Life<Cell> 20x20 ***

Generation = 0, Population = 38.
--------------------
----------------0---
-0-0-------0--------
--------------------
-----0--------0-0---
-------------0-0----
-----00-------0-----
--------------------
--------------------
-----------0--------
-------------0------
-0-0-------0--------
---------0-0--------
-------00-------0---
------00---0------0-
-----------0---0----
----000-0---------0-
-0---------0-------0
-0-------------0----
--------------------

Generation = 1, Population = 99.
----------------0---
-0-0-------0---0-0--
0---0-----0-0---0---
-0-0-0-----0--0-0---
----0-0--------0-0--
------0-----0-------
----0110------------
-----00-------0-----
-----------0--------
----------0-00------
-0-0--------0-0-----
0---0----00100------
-0-0---0---10---0---
--------1------0-00-
-----01---010--000-0
----00-00-010-0-0---
-0-01-1--0-----0-0--
010-000-0-0-0--0----
010--------0--0-0--0
-0-------------0----

Generation = 2, Population = 111.
-0-0-------0--------
--------------0---0-
-0-0-----0---00-1---
-------------0-01---
-0---010---00---0-0-
-----------0-0-0-0--
---01*-10---0-0-----
-----------0-0-0----
-----00------00-----
-0-0-----0-0-1------
---------0-----0----
-0-0-0-001-*-1--0---
------0--0--------0-
-0-0-00--00---01--1-
------*--0-*-0--1-0-
-0-----110-*----10-0
-101*-*-0-00---10-0-
---0-----0-0-0-1-0-0
---0000-0----0---00-
-1---------0-------0

Generation = 3, Population = 185.
0---0-----0-0-0---0-
---------0-0--1000-0
0---0---0-0-0--0*00-
---0-000-0-0-101*00-
0-0-01-10-0-10-010-0
-0-00-0-0-01--0-0---
--01-.-*10-0---0-0--
---00-000-0-01--0---
-0-00110-0--011-----
0---000-01---*-0----
-----0-0--0---0-----
0-----01-*-.--0--00-
-----01----1-0000010
0----110111---1*-0-0
---0--*---0*----*01-
01-00-0**-0*00--*1--
0--**-.01-11000----0
-1--00--0-01-1-*01--
-10---1-----01000-10
0-00000-0-0-00---0--

Generation = 4, Population = 102.
-0-0-0-----0--1-0---
------------00-11---
-0----0-------01.---
----------------.---
-0-------01-*-----0-
-----0---0------10-0
--1*1.1.-1-1-0----0-
-0-1-0-----0--------
-----*---1-0--*-0---
--------1----.--0---
-----1-1-0-0--1--00-
-0---0---.-.--------
----0-*00----1-1--*-
-0-00------0---.---1
-001--.0--1.-00-.-*-
-*-1---.*-1.1--0*--0
110..-.-*-*-1-1---0-
-*---1--1------.1*--
-----0*0-------1--*1
-1-------------0---0

Generation = 5, Population = 164.
0-----0---0----010--
---0-00-----11---0--
0-0--0-0----0-1-*---
------0--00-0-01.-0-
0-0--1--0-*-.0--1---
-000----0--100-0*1--
--***.-.1*-*--0-0---
0-0*01----0-010-0-0-
-0-00.1----101.-10--
---------1---.-01-0-
-0--0*--0---00-0-110
0-0--1--0.-.-100-0--
----10*-10-10---00.-
010--11-1---0-1.--1-
01-*--.--0*.-11-.0*0
-.-*0--**--.*-01.10-
*-1..0.0*-.-*-------
-*--0*--*00-0-0***00
----0-*1------0*--*-
0-0--000------010--1

*** Life<Cell> 20x20 ***

Generation = 0, Population = 71.
---------0-----0-0--
------0------------0
0--0---0---0--------
--------0-----------
----------0--0------
---00-------------0-
------0--0-----0----
------------00------
-----0-0------0-----
-00----0-0----0---0-
---------0---------0
-0---0---0---0------
0-----0----0--------
---------0------00--
0--0--0-----00--000-
-0-0---------0------
---------00------0--
--0-----0---0---00--
-0---0-0--0--------0
-0000---------0--0--

Generation = 2, Population = 155.
0--0-----0---0-----1
----0------------1-0
011------01----0-0--
---10-----1-------00
0--1--0011--1-------
-01--11-0---01--0---
----11--1-10--1--0--
-0000--1-101---1----
---0-00*-1--1--10--0
1*-10--*---0--------
0----10-------1--0-0
-01----0------10000-
--000-0-0---1---1100
---1-0-0-0-1--01--00
-01-110-01------0**1
-00*-0--01-00--0----
01-1-00-0-*1-1-00*1-
0-0---0------101-011
-----0-00-0-1------0
1-0--00-0-----01---1

Generation = 4, Population = 151.
0--0-0-0--1--0-----*
--100-0---1----1-.0*
--*00-0----1---0-*--
----*-----.--0------
---*-000..--.--0----
0**---1-00---.-----0
0-00-1-0.11--0------
-*---1-*-----1-*01--
10-0--0.-.---1----1-
1.--*-1.-*10-0*-110-
*--1-.---0--0-.-0-1-
-*-0--------11---0--
----*1---0----01-.--
-1-.-*-00*----*.1--*
-0--*1--0.--*01--..-
-**.1--1-----11---0-
0--*-0----*1-.1-0*10
*100--*-00---10--0.1
01-----*-00010000-00
--01-0*1--1-1--*101.

Generation = 6, Population = 174.
-1-*101-11.-10-----*
11--01*---.-0--.1.**
--.**0--011--1---*-1
00-*.00---.1------1-
110.-****.-0*1-0----
-*.-1*.-*0000.010--0
*00*1.--.-*-1--1--0-
1.--1.-.--*---0.-.--
1--0--*.0.-1*1----.-
1.--*-*.-.1-10.01-*1
.-1.-.*---00-1.1*-*-
0.-*0-000----.1---0-
000-*11-0--0*-0.1.--
-*1.-.0**.-1--..-1**
101*.1-1*.--.-.1-..-
0....--1---11-.*1-*-
*--.--0---..1*---.*0
*.0010.1*-----*1-*.-
0-1---1.---0*-**00-0
---*--*-*-*-*-1*.01.

Generation = 8, Population = 187.
-*0..*1-**.11-1---0.
.1*--1.10-.1--0*-*.*
1-...--1*1.10---0.-.
-0-..*-00-.*0001001-
11-*0...*.--.*1---11
1.*11..0.-*--.--*--0
**-.*.0-*1.-.-**01--
1.--..1*1*.1110.0*--
--10--..-.-*.11**0.1
*.-1.-*.-..1-**0-1**
.11.-.*--*-**.*1.1.0
-.-*-1*0-*-0-.*--1*-
0--**1*00*10*--*1.01
-...1.-***1.0-.*-.**
-*..*-****-0*1..-..-
0....-0.-11*--*.*-*0
*-1*1001*-.*-.---.**
*.--1-.*.----1.1-..1
--.---*.-01*.1..---0
*01.-*.-.-.-*0-..-*.

Generation = 10, Population = 174.
-*-*.**-..*-*1*-000.
*-.--..1-1.--10.*.*.
1-...-**....0---*.1.
1*1...--*-..--*1*01-
1-*.0*.**.1*..1----1
1..**.*-.0.-1*-1.0-*
.*0...-1.1*-.-*.-1-1
*.-*..1.**.--.-*-.-1
-1.---**1.1*.*-..*.*
..*..-.*-**1-..*-*.*
*...-..01*-****-.1.-
*.-.1-.0-.1-*.*---*1
0--*.*.0*.*-*1-...*1
-**.-*1*..1*00..-..*
-*...1.*..--.*..-..1
*.*..--.*1-.11...0*0
*1..*-***-**-.--**..
*.-0*1*..-1--.*1**.1
1*.0--..1*-..1**010-
.-.***.-*-*0.--..-..

*** Life<Cell> 20x20 ***

Generation = 0, Population = 126.
---00--0--------00--
000------000-----0-0
00-------000-0----0-
---0-0---0-0----00-0
---0-0---000--0----0
00---0-----0--00-0--
-000--00--0--0------
0----0-00----00---0-
----0--0-0-0-0-----0
---0----0---0--0-0--
-00---0---0--0-0-0--
-----0-----0---0-00-
---0---------------0
----------00-0---000
-0-0----0-00--0--0--
-----0--00000-00----
----0---00--0-00----
--0-0--0--000--0--00
--0-0----0--00------
---0---0------000---

Generation = 4, Population = 176.
-0-.*-*00-.*1-0..*0.
0*.-.0-1-1-1-*-*0*--
---*---0*-*.*--01.11
11-.---10100110-1.*.
*..*-*1---11--1-**1.
11-*01-1*--.*--.--*0
.0-1..*---*-..-*--1-
-01---1..*101**11001
1--*--.-0-1--.0-----
0*--00***-100-010-11
*1---0010.0-------1-
11--------0-.-0--0.-
-----.--*--01.*.-*-.
--111-0-11-0-**-.1-0
-----1--*-.---.1-*10
-1-*--1..*1.--*-.1-0
0--..---*-.-110-.-0-
--.-0-----10-10*---.
-1.1110-1-000-1-0---
--*0*1--01*-1-*-----

Generation = 8, Population = 176.
*--..1*-.-...--...1.
*..0.0-1..-.1.***.--
*-**-*****.*.1-1*.-.
-*-*010111-..-01*...
.***1.*1-*---1.-*...
1--.1.-..0-.**..0-..
*01....-11.*..1*-1--
-1*10-..*.-*.*..--..
..-**-*1.-*1-.*-*-1*
*.1*.-...-.-.-11*1-.
..***-1*0.0-.1---**1
1----*-......*.***.-
1***-.1-.000...*-.1.
1*.1.1-***---..0.*-1
010--*.-.-.*01*11.*-
1-**---***.****1..-.
*--*.-0-*0.-*.*-*000
*...1-*--.--*--.11*.
*1.*-*-....10*-.----
-.*..*-11****-.-.-0-

Generation = 12, Population = 141.
.-0..1.-.-..*-1*..-*
.....--..***-*..****
.1......*....-*.*.1*
-*-...0.......-....*
.*.....11..-..*-..*.
*.**.*-..1-.**..*0*.
.-....*.--..**.*1**0
--..*1..**-*...*.*..
..-..**..*.-*..-*...
**-..1...*.1.1...-*.
**...-.**.1-.*0-*...
**-*0.1.*..**.......
***.0.*-.--.....*.-.
*....*1**.***..0*.--
*.-.-**-.*.*.......1
*1..---****....1..0.
.-0..0.**-**...-.-1*
....1-.-0.*0*1.**..*
......*.*..1*.-...*-
-.....-*1**..-*1*.0-

Generation = 16, Population = 144.
.--..-.1.-...*****-.
..*..-0.*...*....**.
..**...**....1..**-.
-.**.***......***.*.
..****.*...-.**.**..
.***.*-.*-.***.*.***
.1**.*..*1**.*.*...-
11...1....1*.....*..
.*0...**.*.-.....**.
.**.*....*.**....*..
.**.........**-*.*..
.*1.-*.**....*.*..*.
*...*...*-*.**....-.
*...*.*...*.*.*...-1
..0.-.*-*.**.*.*.*.1
..**.-...*....*...-*
*.1**0*.*-.....-.-..
.*..*...-.*1.*...*.*
..........*-..1*.**0
-.....-.....*-*1...1

Generation = 20, Population = 125.
.1..***1.-....****-.
*..*.*-.......**..*.
**...........1...*1*
1.......**.......*.*
.....**..**.........
....****....*...*...
..**.*...**.*....*.1
**.*..**.*-.*.......
..0**.*..*.*.**.....
.......****......**.
........**....*****.
..1*-.....**....*...
...**...*1......**..
.*...*.****.***..**.
****..*-*.*........-
**.*.-.....**....**.
..-..0***-.....-.-*.
.......*-***....*...
..........**.......*
-.....-....*...***..

